…
Males tend to have a higher Delta value, hence higher level of political interest stability than females. Additionally, the Delta value decreases as age increases, which indicates a higher level of political stability, however political stability peaks at around the age of 65, before increasing again after wards. This implies that older individuals are more likely to take an active interest in politics, but for the elderly as they enter retirement, they may have lower concerns regarding society, and therefore have a lower interest in politics.

``` r
Pol.stab <- Long %>%
  filter(!is.na(vote6)) %>% 
  group_by(pidp, sex_dv) %>%
  summarise(Delta=sum(vote6))

Pol.stab
```

    ## # A tibble: 47,708 x 3
    ## # Groups:   pidp [47,708]
    ##        pidp sex_dv Delta
    ##       <int> <chr>  <int>
    ##  1 68001367 Male       3
    ##  2 68004087 Male      13
    ##  3 68006127 Female    28
    ##  4 68006135 Female    14
    ##  5 68006139 Female    13
    ##  6 68006807 Female    27
    ##  7 68007487 Female     8
    ##  8 68008167 Female     7
    ##  9 68008847 Female    22
    ## 10 68009527 Male      16
    ## # … with 47,698 more rows
…
``` r
Pol.stab1 <- Long %>%
  filter(!is.na(vote6)) %>% 
  filter(wave == "a") %>% 
  group_by(age_dv) %>% 
  summarise(Delta=mean(vote6))

Pol.stab1
```

    ## # A tibble: 85 x 2
    ##    age_dv Delta
    ##     <int> <dbl>
    ##  1     15  3.67
    ##  2     16  3.15
    ##  3     17  3.10
    ##  4     18  3.08
    ##  5     19  3.09
    ##  6     20  3.02
    ##  7     21  2.96
    ##  8     22  3.04
    ##  9     23  2.94
    ## 10     24  2.83
    ## # … with 75 more rows
…
